{
  "repos": [
    {
      "version": "v2.24.0",
      "name": "cloudcraft-terraform-aws-vpc",
      "description": "CloudCraft module for AWS VPC for tf version 0.12.0+",
      "repository": "https://github.com/terraform-aws-modules/terraform-aws-vpc.git",
      "languageVersion": "0.12.0",
      "productCategoryUuid": "50129448-9949-4ba9-b35c-d257770cb72a"
    },
    {
      "version": "v3.4.0",
      "name": "registry-terraform-aws-security-group",
      "description": "Registry module for AWS Security Group creation for terraform version 0.12.0",
      "repository": "https://github.com/terraform-aws-modules/terraform-aws-security-group.git",
      "languageVersion": "0.12.0",
      "productCategoryUuid": "50129448-9949-4ba9-b35c-d257770cb72a"
    }
  ]
}