{
  "repos": [
    {
      "version": "v2.13.0",
      "name": "registry-terraform-aws-rds",
      "description": "Registry module for AWS RDS creation for terraform version 0.12.0",
      "repository": "https://github.com/terraform-aws-modules/terraform-aws-rds.git",
      "languageVersion": "0.12.0",
      "productCategoryUuid": "50129448-9949-4ba9-b35c-d257770cb72a"
    }
  ]
}